%!PS-Adobe-3.0 EPSF-3.0
%%Creator: cairo 1.16.0 (https://cairographics.org)
%%CreationDate: Mon Dec 30 10:06:58 2019
%%Pages: 1
%%DocumentData: Clean7Bit
%%LanguageLevel: 2
%%BoundingBox: 0 0 384 384
%%EndComments
%%BeginProlog
50 dict begin
/q { gsave } bind def
/Q { grestore } bind def
/cm { 6 array astore concat } bind def
/w { setlinewidth } bind def
/J { setlinecap } bind def
/j { setlinejoin } bind def
/M { setmiterlimit } bind def
/d { setdash } bind def
/m { moveto } bind def
/l { lineto } bind def
/c { curveto } bind def
/h { closepath } bind def
/re { exch dup neg 3 1 roll 5 3 roll moveto 0 rlineto
      0 exch rlineto 0 rlineto closepath } bind def
/S { stroke } bind def
/f { fill } bind def
/f* { eofill } bind def
/n { newpath } bind def
/W { clip } bind def
/W* { eoclip } bind def
/BT { } bind def
/ET { } bind def
/BDC { mark 3 1 roll /BDC pdfmark } bind def
/EMC { mark /EMC pdfmark } bind def
/cairo_store_point { /cairo_point_y exch def /cairo_point_x exch def } def
/Tj { show currentpoint cairo_store_point } bind def
/TJ {
  {
    dup
    type /stringtype eq
    { show } { -0.001 mul 0 cairo_font_matrix dtransform rmoveto } ifelse
  } forall
  currentpoint cairo_store_point
} bind def
/cairo_selectfont { cairo_font_matrix aload pop pop pop 0 0 6 array astore
    cairo_font exch selectfont cairo_point_x cairo_point_y moveto } bind def
/Tf { pop /cairo_font exch def /cairo_font_matrix where
      { pop cairo_selectfont } if } bind def
/Td { matrix translate cairo_font_matrix matrix concatmatrix dup
      /cairo_font_matrix exch def dup 4 get exch 5 get cairo_store_point
      /cairo_font where { pop cairo_selectfont } if } bind def
/Tm { 2 copy 8 2 roll 6 array astore /cairo_font_matrix exch def
      cairo_store_point /cairo_font where { pop cairo_selectfont } if } bind def
/g { setgray } bind def
/rg { setrgbcolor } bind def
/d1 { setcachedevice } bind def
/cairo_data_source {
  CairoDataIndex CairoData length lt
    { CairoData CairoDataIndex get /CairoDataIndex CairoDataIndex 1 add def }
    { () } ifelse
} def
/cairo_flush_ascii85_file { cairo_ascii85_file status { cairo_ascii85_file flushfile } if } def
/cairo_image { image cairo_flush_ascii85_file } def
/cairo_imagemask { imagemask cairo_flush_ascii85_file } def
%%EndProlog
%%BeginSetup
%%EndSetup
%%Page: 1 1
%%BeginPageSetup
%%PageBoundingBox: 0 0 384 384
%%EndPageSetup
q 0 0 384 384 rectclip
1 0 0 -1 0 384 cm q
0 g
192 384 m 140.715 384 92.5 364.027 56.234 327.766 c 19.973 291.5 0 243.285
 0 192 c 0 140.715 19.973 92.5 56.234 56.234 c 92.5 19.973 140.715 0 192
 0 c 243.285 0 291.5 19.973 327.766 56.234 c 364.027 92.5 384 140.715 384
 192 c 384 243.285 364.027 291.5 327.766 327.766 c 291.5 364.027 243.285
 384 192 384 c h
192 22.5 m 146.727 22.5 104.16 40.133 72.145 72.145 c 40.133 104.16 22.5
 146.727 22.5 192 c 22.5 237.273 40.133 279.84 72.145 311.855 c 104.16 343.867
 146.727 361.5 192 361.5 c 237.273 361.5 279.84 343.867 311.855 311.855 
c 343.867 279.84 361.5 237.273 361.5 192 c 361.5 146.727 343.867 104.16 
311.855 72.145 c 279.84 40.133 237.273 22.5 192 22.5 c h
192 22.5 m f
180.75 45.027 22.5 30.023 re f
266.703 101.371 m 287.93 80.141 l 303.836 96.051 l 282.609 117.277 l h
266.703 101.371 m f
308.949 180.75 30.023 22.5 re f
266.684 282.652 m 282.59 266.742 l 303.816 287.969 l 287.91 303.879 l h
266.684 282.652 m f
180.75 308.949 22.5 30.023 re f
80.082 287.949 m 101.309 266.723 l 117.215 282.629 l 95.988 303.859 l h
80.082 287.949 m f
45.027 180.75 30.023 22.5 re f
80.102 96.031 m 96.008 80.121 l 117.234 101.348 l 101.328 117.258 l h
80.102 96.031 m f
271.418 203.25 m 180.75 203.25 l 180.75 112.582 l 203.25 112.582 l 203.25
 180.75 l 271.418 180.75 l h
271.418 203.25 m f
Q Q
showpage
%%Trailer
end
%%EOF
