%!PS-Adobe-3.0 EPSF-3.0
%%Creator: cairo 1.16.0 (https://cairographics.org)
%%CreationDate: Wed Feb  5 14:18:18 2020
%%Pages: 1
%%DocumentData: Clean7Bit
%%LanguageLevel: 2
%%BoundingBox: 0 2 23 21
%%EndComments
%%BeginProlog
50 dict begin
/q { gsave } bind def
/Q { grestore } bind def
/cm { 6 array astore concat } bind def
/w { setlinewidth } bind def
/J { setlinecap } bind def
/j { setlinejoin } bind def
/M { setmiterlimit } bind def
/d { setdash } bind def
/m { moveto } bind def
/l { lineto } bind def
/c { curveto } bind def
/h { closepath } bind def
/re { exch dup neg 3 1 roll 5 3 roll moveto 0 rlineto
      0 exch rlineto 0 rlineto closepath } bind def
/S { stroke } bind def
/f { fill } bind def
/f* { eofill } bind def
/n { newpath } bind def
/W { clip } bind def
/W* { eoclip } bind def
/BT { } bind def
/ET { } bind def
/BDC { mark 3 1 roll /BDC pdfmark } bind def
/EMC { mark /EMC pdfmark } bind def
/cairo_store_point { /cairo_point_y exch def /cairo_point_x exch def } def
/Tj { show currentpoint cairo_store_point } bind def
/TJ {
  {
    dup
    type /stringtype eq
    { show } { -0.001 mul 0 cairo_font_matrix dtransform rmoveto } ifelse
  } forall
  currentpoint cairo_store_point
} bind def
/cairo_selectfont { cairo_font_matrix aload pop pop pop 0 0 6 array astore
    cairo_font exch selectfont cairo_point_x cairo_point_y moveto } bind def
/Tf { pop /cairo_font exch def /cairo_font_matrix where
      { pop cairo_selectfont } if } bind def
/Td { matrix translate cairo_font_matrix matrix concatmatrix dup
      /cairo_font_matrix exch def dup 4 get exch 5 get cairo_store_point
      /cairo_font where { pop cairo_selectfont } if } bind def
/Tm { 2 copy 8 2 roll 6 array astore /cairo_font_matrix exch def
      cairo_store_point /cairo_font where { pop cairo_selectfont } if } bind def
/g { setgray } bind def
/rg { setrgbcolor } bind def
/d1 { setcachedevice } bind def
/cairo_data_source {
  CairoDataIndex CairoData length lt
    { CairoData CairoDataIndex get /CairoDataIndex CairoDataIndex 1 add def }
    { () } ifelse
} def
/cairo_flush_ascii85_file { cairo_ascii85_file status { cairo_ascii85_file flushfile } if } def
/cairo_image { image cairo_flush_ascii85_file } def
/cairo_imagemask { imagemask cairo_flush_ascii85_file } def
%%EndProlog
%%BeginSetup
%%EndSetup
%%Page: 1 1
%%BeginPageSetup
%%PageBoundingBox: 0 2 23 21
%%EndPageSetup
q 0 2 23 19 rectclip
1 0 0 -1 0 23 cm q
0.00392157 0 0.00784314 rg
0 20.062 m 0 8.93 l 0 5.488 2.801 2.688 6.242 2.688 c 16.504 2.688 l 19.949
 2.688 22.75 5.488 22.75 8.93 c 22.75 10.852 l 22.75 14.293 19.949 17.094
 16.508 17.094 c 6.387 17.094 l h
6.242 4.078 m 3.57 4.078 1.391 6.254 1.391 8.93 c 1.391 17.879 l 6.082 
15.703 l 16.508 15.703 l 19.18 15.703 21.359 13.527 21.359 10.852 c 21.359
 8.93 l 21.359 6.254 19.18 4.078 16.504 4.078 c h
6.703 8.824 m 7.434 8.824 8.027 9.418 8.027 10.148 c 8.027 10.879 7.434
 11.473 6.703 11.473 c 5.973 11.473 5.379 10.879 5.379 10.148 c 5.379 9.418
 5.973 8.824 6.703 8.824 c h
16.047 8.824 m 16.777 8.824 17.371 9.418 17.371 10.148 c 17.371 10.879 
16.777 11.473 16.047 11.473 c 15.316 11.473 14.723 10.879 14.723 10.148 
c 14.723 9.418 15.316 8.824 16.047 8.824 c h
11.375 8.824 m 12.105 8.824 12.699 9.418 12.699 10.148 c 12.699 10.879 
12.105 11.473 11.375 11.473 c 10.641 11.473 10.051 10.879 10.051 10.148 
c 10.051 9.418 10.641 8.824 11.375 8.824 c h
11.375 8.824 m f
Q Q
showpage
%%Trailer
end
%%EOF
