<?xml version="1.0" encoding="UTF-8"?>
<!DOCTYPE svg PUBLIC "-//W3C//DTD SVG 1.1//EN" "http://www.w3.org/Graphics/SVG/1.1/DTD/svg11.dtd">
<!-- Creator: CorelDRAW 2019 (64-Bit) -->
<svg xmlns="http://www.w3.org/2000/svg" xml:space="preserve" width="11.811in" height="11.811in" version="1.1" style="shape-rendering:geometricPrecision; text-rendering:geometricPrecision; image-rendering:optimizeQuality; fill-rule:evenodd; clip-rule:evenodd"
viewBox="0 0 11811.02 11811.02"
 xmlns:xlink="http://www.w3.org/1999/xlink">
 <defs>
  <style type="text/css">
   <![CDATA[
    .fil2 {fill:none}
    .fil1 {fill:#FFA600}
    .fil0 {fill:#A8A8A8;fill-rule:nonzero}
   ]]>
  </style>
 </defs>
 <g id="Layer_x0020_1">
  <metadata id="CorelCorpID_0Corel-Layer"/>
  <g id="_2703755880208">
   <path class="fil0" d="M3556.07 4792.7l455.47 0c100.65,0 192.33,41.53 258.59,107.8 66.26,66.27 107.83,157.95 107.83,258.61l0 814.84c189.7,29.25 384.07,54.56 577.11,77.35 213.12,24.72 422.88,44.78 622.39,61.74l0 -224.22c0,-140.99 57.19,-268.39 149.46,-360.56 92.88,-92.28 220.28,-149.46 360.69,-149.46l1632.91 0c140.42,0 267.69,57.18 359.96,149.46 92.3,92.18 149.48,219.57 149.48,360.56l0 224.83c785.59,-65.56 1735.58,-189.01 2411.32,-411.21 223.64,-72.8 787.64,-274.22 787.64,-566.02l0 -1919.46c0,-19.58 -21.48,-30.56 -39.03,-30.56 -2991,0 -5981.39,0 -8971.75,0 -17.57,0 -38.94,10.97 -38.94,30.56l0 788.22 123.45 0c155.33,0 296.93,63.63 399.59,165.6 63.05,63.75 111.78,141.72 139.84,228.76 145.51,6.54 277.46,68.28 374.16,165.69 63.76,63.06 111.87,141.02 139.8,227.46zm1283.2 -1950.02l0 -465.28c0,-204.01 83.22,-388.5 217.19,-522.42 100.04,-100.07 229.35,-172.17 372.97,-202.04 26.61,-91.69 75.92,-173.48 142.19,-239.83 101.38,-101.38 241.76,-164.41 396.39,-164.41l1872.04 0c154.74,0 295,63.02 396.39,164.41 65.64,66.35 115.68,148.14 142.3,239.83 143.62,29.87 272.33,101.96 372.39,202.04 134.54,133.92 217.64,318.41 217.64,522.42l0 465.28 2421.14 0c103.36,0 198.17,40.83 267.78,107.8 70.81,68.3 114.97,162.51 114.97,266.48l0 1919.46c0,251.43 -158.56,456.08 -422.39,622.5l0 3196.94c0,103.98 -42.28,198.18 -110.46,266.36 -68.89,68.27 -163.09,111.12 -267.07,111.12l-6594.78 0 0 864.88c0,100.76 -41.57,192.34 -107.83,258.6 -66.26,66.26 -157.95,107.8 -258.59,107.8l-3608.94 0c-100.78,0 -192.46,-41.54 -258.61,-107.8 -66.97,-66.26 -107.93,-157.83 -107.93,-258.6l0 -2129.93c0,-94.93 77.36,-172.28 172.17,-172.28l0 2302.21c0,106.6 87.14,194.26 194.36,194.26l3608.94 0c107.21,0 194.26,-87.66 194.26,-194.26l0 -5039.13c0,-106.48 -87.05,-194.24 -194.26,-194.24l-601.02 0c0,-217.06 -176.81,-393.75 -393.84,-393.75 -69.5,0 -109.72,18.85 -126.08,-67.58 -35.11,-185.19 -193.56,-326.89 -387.91,-326.89l-591.35 0c-193.54,0 -356.02,141.7 -387.89,326.89 -13.6,80.59 -66.85,67.58 -126.07,67.58 -217.04,0 -394.35,176.69 -394.35,393.75l-600.43 0c-107.22,0 -194.36,87.75 -194.36,194.24l0 2302.2c-94.81,0 -172.17,-77.23 -172.17,-172.17l0 -2130.04c0,-100.65 40.95,-192.33 107.93,-258.61 66.26,-66.26 157.83,-107.8 258.61,-107.8l455.49 0c27.93,-86.44 75.92,-164.4 138.94,-227.46 97.56,-97.41 229.47,-159.15 375.03,-165.69 27.93,-87.04 76.65,-165.01 139.67,-228.76 102.69,-101.97 244.27,-165.72 399.6,-165.72l123.47 0 0 -788.1c0,-103.97 44.16,-198.17 115.7,-266.48 68.89,-66.97 164.4,-107.8 267.67,-107.8l2421.11 0zm603.05 -836.32c-53.85,20.17 -102.69,51.31 -142.91,91.69 -71.52,71.4 -116.3,170.85 -116.3,279.35l0 465.28 3441.33 0 0 -465.28c0,-108.5 -44.17,-207.96 -116.29,-279.35 -39.61,-40.37 -88.34,-71.52 -143.02,-91.69 -27.94,75.43 -72.71,143.62 -128.58,199.48 -101.38,102.08 -241.76,164.99 -396.39,164.99l-1872.04 0c-154.74,0 -295,-62.91 -396.39,-164.99 -56.57,-55.86 -100.77,-124.06 -129.41,-199.48zm2397.72 -413.93l-1872.04 0c-59.69,0 -113.67,24.7 -153.31,64.34 -39.61,39.05 -63.63,93.63 -63.63,152.7 0,57.92 22.71,112.47 63.63,153.43 39.64,39.64 93.62,64.34 153.31,64.34l1872.04 0c59.82,0 113.8,-24.7 153.44,-64.34 38.9,-39.64 63.63,-93.61 63.63,-153.43 0,-59.07 -24.72,-113.65 -63.63,-152.7 -39.64,-39.64 -93.62,-64.34 -153.44,-64.34zm-2262.57 4864.94c-210.5,-16.83 -434,-38.94 -661.43,-64.95 -176.82,-20.78 -357.45,-44.19 -538.08,-71.52l0 2668.15 6594.78 0c18.28,0 33.8,-15.07 33.8,-33.19l0 -3022.15c-81.79,33.77 -168.23,65.54 -259.34,95.51 -713.37,233.88 -1706.33,362.58 -2517.23,429.46l0 358.65c0,140.41 -57.19,268.5 -149.48,360.68 -92.27,92.28 -219.54,149.46 -359.96,149.46l-426.94 0c-94.9,0 -172.17,-76.62 -172.17,-172.25 0,-94.81 77.27,-171.46 172.17,-171.46l426.94 0c45.49,0 87.06,-18.86 117,-48.81 29.86,-30.44 48.72,-72.13 48.72,-117.6l0 -928.51c0,-45.48 -18.86,-87.04 -48.72,-117.61 -29.95,-29.95 -71.52,-48.69 -117,-48.69l-1632.91 0c-45.48,0 -87.14,18.74 -117,48.69 -30.57,30.57 -49.3,72.13 -49.3,117.61l0 928.51c0,45.47 18.74,87.16 49.3,117.6 29.86,29.95 71.52,48.81 117,48.81l426.83 0c94.91,0 172.28,76.65 172.28,171.46 0,95.63 -77.38,172.25 -172.28,172.25l-426.83 0c-140.41,0 -267.8,-57.18 -360.69,-149.46 -92.15,-92.3 -149.46,-220.27 -149.46,-360.68l0 -359.96z"/>
   <path class="fil1" d="M2934.75 9364.52l-1455.48 0c-94.94,0 -172.18,77.37 -172.18,172.3 0,94.78 77.24,171.55 172.18,171.55l1455.48 0c94.91,0 172.3,-76.77 172.3,-171.55 0,-94.93 -77.39,-172.3 -172.3,-172.3z"/>
   <path class="fil1" d="M952.28 9085.87l2509.46 0c94.93,0 172.29,-76.78 172.29,-171.59 0,-94.91 -77.36,-172.26 -172.29,-172.26l-2509.46 0c-94.93,0 -172.17,77.35 -172.17,172.26 0,94.81 77.24,171.59 172.17,171.59z"/>
   <path class="fil1" d="M952.28 8463.35l2509.46 0c94.93,0 172.29,-76.74 172.29,-171.55 0,-95.51 -77.36,-172.3 -172.29,-172.3l-2509.46 0c-94.93,0 -172.17,76.79 -172.17,172.3 0,94.81 77.24,171.55 172.17,171.55z"/>
   <path class="fil1" d="M1616.32 7667.27c64.37,0 128.7,-8.37 191.02,-24.02 92.3,-22.8 148.18,-116.26 125.5,-207.84 -45.51,-181.36 -200.1,-111.89 -316.52,-111.89 -133.85,0 -254.66,-59.69 -343.73,-155.9 -91.57,-99.33 -148.76,-239.13 -148.76,-393.75 0,-154.62 57.19,-293.7 148.76,-393.76 89.07,-96.21 209.87,-155.32 343.73,-155.32 35.82,0 72.83,4.56 107.92,13.02 92.3,23.41 185.19,-33.19 208.6,-124.77 22.68,-92.3 -33.19,-185.18 -125.5,-207.86 -62.32,-16.35 -126.66,-24.11 -191.02,-24.11 -233.31,0 -444.37,101.96 -595.77,267.06 -148.17,161.2 -240.44,382.06 -240.44,625.74 0,243.69 92.27,465.28 240.44,626.43 151.39,165.01 362.46,266.98 595.77,266.98z"/>
   <path class="fil1" d="M2231.05 6162.46l535.48 1393.78c33.77,88.33 132.52,132.52 220.98,98.72 47.41,-18.15 81.92,-54.55 98.75,-98.72l535.45 -1393.78c33.69,-88.45 -10.48,-187.21 -98.85,-220.98 -88.35,-33.81 -187.08,10.4 -220.89,98.72l-375.6 977.93 -375.6 -977.93c-33.77,-88.33 -132.62,-132.53 -220.98,-98.72 -87.62,33.77 -132.52,132.53 -98.75,220.98z"/>
   <line class="fil2" x1="2034.8" y1="4005.06" x2="2379.23" y2= "4005.18" />
   <line class="fil2" x1="4377.96" y1="5941.09" x2="4377.96" y2= "9765.78" />
   <path class="fil1" d="M379.79 10198.23l0 -2129.93c0,-94.94 -76.66,-172.29 -171.56,-172.29 -94.81,0 -172.17,77.35 -172.17,172.29l0 2129.93c0,100.76 40.95,192.34 107.93,258.6 66.14,66.26 157.83,107.8 258.61,107.8l3608.94 0c100.65,0 192.34,-41.54 258.6,-107.8 66.26,-66.26 107.83,-157.84 107.83,-258.6l0 -432.44 0 -432.44 0 -344.3 0 -2668.14 0 -346.96 0 -814.84c0,-100.65 -41.57,-192.34 -107.83,-258.61 -66.26,-66.26 -157.95,-107.8 -258.6,-107.8l-455.46 0c-27.94,-86.44 -76.04,-164.41 -139.8,-227.46 -96.71,-97.41 -228.66,-159.15 -374.17,-165.69 -28.06,-87.04 -76.79,-165.01 -139.83,-228.77 -102.67,-101.96 -244.26,-165.6 -399.59,-165.6l-123.45 0 -344.43 -0.12 -123.47 0c-155.33,0 -296.91,63.76 -399.6,165.72 -63.02,63.76 -111.74,141.72 -139.68,228.77 -145.55,6.54 -277.47,68.28 -375.02,165.69 -63.02,63.06 -111.01,141.02 -138.94,227.46l-455.49 0c-100.78,0 -192.35,41.53 -258.61,107.8 -66.97,66.27 -107.93,157.96 -107.93,258.61l0 2130.04c0,94.93 77.36,172.16 172.17,172.16 94.9,0 171.56,-77.23 171.56,-172.16l0 -2130.04c0,-11.7 10.39,-22.1 22.8,-22.1l455.49 0c27.93,86.47 76.04,164.41 139.06,227.46 102.7,102.67 244.3,166.42 400.22,166.42l1619.31 0c155.91,0 297.64,-63.76 399.6,-166.42 63.76,-63.06 111.74,-140.99 139.68,-227.46l455.59 0c11.7,0 22.67,10.4 22.67,22.1l0 5039.13c0,11.7 -10.97,22.08 -22.67,22.08l-3608.94 0c-12.41,0 -22.8,-10.39 -22.8,-22.08zm1017.57 -5011.2c-61.01,0 -116.3,-25.31 -156.53,-65.52 -40.34,-40.37 -65.65,-95.51 -65.65,-156.64 0,-61 25.31,-116.3 65.65,-156.64 40.22,-40.25 95.52,-65.56 156.53,-65.56l120.23 0c94.91,0 172.14,-76.66 172.14,-171.55 0,-61.13 24.73,-116.3 65.07,-156.64 40.25,-40.83 96.12,-65.56 156.52,-65.56l591.35 0c60.43,0 116.29,24.72 156.64,65.56 40.24,40.34 64.94,95.51 64.94,156.64 0,94.89 77.36,171.55 172.17,171.55l120.24 0c61.13,0 116.39,25.31 156.64,65.56 40.22,40.35 65.65,95.64 65.65,156.64 0,61.13 -25.43,116.27 -65.65,156.64 -40.25,40.22 -95.51,65.52 -156.64,65.52l-1619.31 0z"/>
  </g>
 </g>
</svg>
