<?xml version="1.0" encoding="UTF-8"?>
<!DOCTYPE svg PUBLIC "-//W3C//DTD SVG 1.1//EN" "http://www.w3.org/Graphics/SVG/1.1/DTD/svg11.dtd">
<!-- Creator: CorelDRAW 2019 (64-Bit) -->
<svg xmlns="http://www.w3.org/2000/svg" xml:space="preserve" width="11.811in" height="11.811in" version="1.1" style="shape-rendering:geometricPrecision; text-rendering:geometricPrecision; image-rendering:optimizeQuality; fill-rule:evenodd; clip-rule:evenodd"
viewBox="0 0 11811.02 11811.02"
 xmlns:xlink="http://www.w3.org/1999/xlink">
 <defs>
  <style type="text/css">
   <![CDATA[
    .fil0 {fill:#A8A8A8;fill-rule:nonzero}
    .fil1 {fill:#FFA600;fill-rule:nonzero}
   ]]>
  </style>
 </defs>
 <g id="Layer_x0020_1">
  <metadata id="CorelCorpID_0Corel-Layer"/>
  <g id="_2702836959056">
   <path class="fil0" d="M10130.16 11103.84l-4633.22 -2453.18c-120.74,-64.06 -267.99,-55.22 -382.11,22.08l-3542.83 2453.19c-132.52,92.03 -189.94,259.16 -141.35,413.04 47.11,152.4 189.94,257.69 350.45,257.69l8176.04 0c168.6,0 316.59,-114.86 357.08,-279.78 41.23,-164.18 -35.33,-334.25 -184.06,-413.04z"/>
   <path class="fil0" d="M10591.06 5498.78c-26.5,-120 -111.18,-217.93 -225.29,-262.84 -114.86,-44.91 -243.7,-29.44 -343.83,39.76l-3543.57 2453.19c-106.02,73.63 -165.66,196.57 -157.56,323.95 7.36,128.85 81.72,243.7 195.11,303.33l4632.48 2453.19c54.48,28.71 113.38,43.44 172.28,43.44 78.78,0 157.56,-25.04 223.08,-75.83 92.72,-70.59 145.59,-179.57 145.57,-293.39 -0.01,-26.26 -2.83,-52.79 -8.63,-79.15l-1089.65 -4905.63z"/>
   <path class="fil0" d="M9117.08 4692.59c-48.59,-153.88 -190.69,-258.43 -351.93,-258.43l-3360.24 0c-611.08,1106.58 -1515.2,2164.57 -1887,2578.35 -209.09,232.65 -508.74,366.65 -821.65,366.65 -312.91,0 -612.56,-134 -821.65,-366.65 -143.57,-159.77 -365.92,-415.24 -620.65,-731.83l-890.86 4009.62c-32.4,147.99 28.7,300.39 153.87,385.06 61.85,41.96 133.99,62.58 205.41,62.58 73.63,0 146.53,-21.35 209.84,-65.54l8042.04 -5568.24c133.26,-90.56 189.95,-257.69 142.83,-411.56z"/>
   <path class="fil1" d="M1591.89 2593.55c0,-609.61 494.76,-1104.37 1104.37,-1104.37 609.61,0 1104.37,494.76 1104.37,1104.37 0,609.61 -494.76,1104.37 -1104.37,1104.37 -609.61,0 -1104.37,-494.76 -1104.37,-1104.37zm1104.37 4049.37c104.55,0 203.94,-44.91 273.89,-122.22 235.6,-262.84 2302.98,-2604.85 2302.98,-3927.15 0,-1420.96 -1155.91,-2576.87 -2576.87,-2576.87 -1420.96,0 -2576.87,1155.91 -2576.87,2576.87 0,1322.3 2067.39,3664.31 2302.98,3927.15 69.95,77.31 169.34,122.22 273.89,122.22z"/>
  </g>
 </g>
</svg>
